{
  "server": "192.168.1.100",
  "name": "dev",
  "essid": "metzler",
  "pin": 4,
  "leds": 150,
  "type": "clairelights",
  "lights": {
    "interval": 0.5,
    "effect": "stop",
    "stripe": "0000FF",
    "fill": "stripe"
  }
}